Avocado Price Modelling
…
## Rows: 18249 Columns: 14
## -- Column specification --------------------------------------------------------
## Delimiter: ","
## chr   (2): type, region
## dbl  (11): ...1, AveragePrice, Total Volume, 4046, 4225, 4770, Total Bags, S...
## date  (1): Date
## 
## i Use `spec()` to retrieve the full column specification for this data.
## i Specify the column types or set `show_col_types = FALSE` to quiet this message.

avocados

## # A tibble: 18,249 x 14
##       x1 date       average_price total_volume x4046   x4225 x4770 total_bags
##    <dbl> <date>             <dbl>        <dbl> <dbl>   <dbl> <dbl>      <dbl>
##  1     0 2015-12-27          1.33       64237. 1037.  54455.  48.2      8697.
##  2     1 2015-12-20          1.35       54877.  674.  44639.  58.3      9506.
##  3     2 2015-12-13          0.93      118220.  795. 109150. 130.       8145.
##  4     3 2015-12-06          1.08       78992. 1132   71976.  72.6      5811.
##  5     4 2015-11-29          1.28       51040.  941.  43838.  75.8      6184.
##  6     5 2015-11-22          1.26       55980. 1184.  48068.  43.6      6684.
##  7     6 2015-11-15          0.99       83454. 1369.  73673.  93.3      8319.
##  8     7 2015-11-08          0.98      109428.  704. 101815.  80        6829.
##  9     8 2015-11-01          1.02       99811. 1022.  87316.  85.3     11388.
## 10     9 2015-10-25          1.07       74339.  842.  64757. 113        8626.
## # ... with 18,239 more rows, and 6 more variables: small_bags <dbl>,
## #   large_bags <dbl>, x_large_bags <dbl>, type <chr>, year <dbl>, region <chr>
…
Based on the BIC values, avo_model2 would be the best (without interaction):

\[ average\_price \sim type + month \]

Run the Test Set

Now try the test set on the model. The test set needs to be updated to include the month column to allow the model to run;

avo_test %>% 
   mutate(month = month(as.POSIXlt(date), label = TRUE, abbr = TRUE),
          type = as.factor(type),
         month = as.factor(month))

## # A tibble: 1,824 x 15
##       x1 date       average_price total_volume    x4046  x4225  x4770 total_bags
##    <dbl> <date>             <dbl>        <dbl>    <dbl>  <dbl>  <dbl>      <dbl>
##  1    46 2015-02-08          1.53        3533.     392  5.07e1 0           3090 
##  2    14 2015-09-20          0.98      760083.   85382. 4.61e5 2.55e4    187899.
##  3    25 2015-07-05          1.46       56930.   17847. 3.01e4 4.75e0      8956.
##  4    34 2016-05-01          1.38        4414.     144. 1.83e3 0           2445.
##  5    14 2016-09-18          1.05      175929.   72171. 2.75e4 8.42e1     76133.
##  6    22 2017-07-30          1.43      157712.   89090. 1.31e4 7.36e1     55446.
##  7    25 2017-07-09          1.62        9009.     328. 2.70e3 0           5980.
##  8    35 2016-04-24          1.25      342796.    4252. 2.77e5 6.85e2     60644.
##  9    40 2017-03-26          1.51       81983.    5449. 2.36e4 1.10e3     51865.
## 10    37 2017-04-16          1.34     5442086. 2047142. 1.57e6 1.63e5   1658970.
## # ... with 1,814 more rows, and 7 more variables: small_bags <dbl>,
## #   large_bags <dbl>, x_large_bags <dbl>, type <fct>, year <dbl>, region <chr>,
## #   month <ord>
…
