Avocado Price Modelling
…
## Rows: 18249 Columns: 14
## -- Column specification --------------------------------------------------------
## Delimiter: ","
## chr   (2): type, region
## dbl  (11): ...1, AveragePrice, Total Volume, 4046, 4225, 4770, Total Bags, S...
## date  (1): Date
## 
## i Use `spec()` to retrieve the full column specification for this data.
## i Specify the column types or set `show_col_types = FALSE` to quiet this message.

avocados

## # A tibble: 18,249 x 14
##       x1 date       average_price total_volume x4046   x4225 x4770 total_bags
##    <dbl> <date>             <dbl>        <dbl> <dbl>   <dbl> <dbl>      <dbl>
##  1     0 2015-12-27          1.33       64237. 1037.  54455.  48.2      8697.
##  2     1 2015-12-20          1.35       54877.  674.  44639.  58.3      9506.
##  3     2 2015-12-13          0.93      118220.  795. 109150. 130.       8145.
##  4     3 2015-12-06          1.08       78992. 1132   71976.  72.6      5811.
##  5     4 2015-11-29          1.28       51040.  941.  43838.  75.8      6184.
##  6     5 2015-11-22          1.26       55980. 1184.  48068.  43.6      6684.
##  7     6 2015-11-15          0.99       83454. 1369.  73673.  93.3      8319.
##  8     7 2015-11-08          0.98      109428.  704. 101815.  80        6829.
##  9     8 2015-11-01          1.02       99811. 1022.  87316.  85.3     11388.
## 10     9 2015-10-25          1.07       74339.  842.  64757. 113        8626.
## # ... with 18,239 more rows, and 6 more variables: small_bags <dbl>,
## #   large_bags <dbl>, x_large_bags <dbl>, type <chr>, year <dbl>, region <chr>
…
